<?xml version="1.0"?>
<robot xmlns:xacro="http://www.ros.org/wiki/xacro" >
    <link name="left_bogie_link">
        <xacro:insert_block name="l_bogie_collision" />
        <visual>
            <origin xyz="0.0 0.0 0.0" rpy="0.0 0.0 0.0"/>
            <geometry>
                <mesh filename="package://rover_gearbox/meshes/left_bogie_link.STL" />
            </geometry>
        </visual>
        <xacro:insert_block name="l_bogie_inertial" />
    </link>
    <joint name="joint_left_bogie" type="continuous">
        <origin xyz="-0.1940092 0.081 -0.1119661" rpy="0.0 0.0 0.0"/>
        <parent link="left_rocker_link"/>
        <child link="left_bogie_link"/>
        <axis xyz="0 1 0"/>
    </joint>

    <link name="left_rear_steering_link">
        <visual>
            <origin xyz="0.0 0.0 0.0" rpy="0.0 0.0 0.0"/>
            <geometry>
                <mesh filename="package://rover_gearbox/meshes/left_steering_link.STL" />
            </geometry>
        </visual>
        <xacro:insert_block name="l_steering_collision" />
        <xacro:insert_block name="l_steering_inertial" />
    </link>
    <joint name="joint_left_rear_steering" type="continuous">
        <origin xyz="-0.1806844 -0.0035563 -0.0459636" rpy="0.0 0.0 0.0"/>
        <parent link="left_bogie_link"/>
        <child link="left_rear_steering_link"/>
        <axis xyz="0 0 1"/>
    </joint>
    

    <link name="left_rear_wheel_link">
        <visual>
            <origin xyz="0.0 0.0 0.0" rpy="0.0 0.0 0.0"/>
            <geometry>
                <mesh filename="package://rover_gearbox/meshes/left_wheel_link.STL" />
            </geometry>
        </visual>
        <xacro:insert_block name="wheel_collision" />
        <xacro:insert_block name="l_wheel_inertial" />
    </link>
    <joint name="joint_left_rear_wheel" type="continuous">
        <origin xyz="0 0 -0.081" rpy="0.0 0.0 0.0"/>
        <parent link="left_rear_steering_link"/>
        <child link="left_rear_wheel_link"/>
        <axis xyz="0 1 0"/>
    </joint>

    <link name="left_mid_wheel_link">
        <visual>
            <origin xyz="0.0 0.0 0.0" rpy="0.0 0.0 0.0"/>
            <geometry>
                <mesh filename="package://rover_gearbox/meshes/left_wheel_link.STL" />
            </geometry>
        </visual>
        <xacro:insert_block name="wheel_collision" />
        <xacro:insert_block name="l_wheel_inertial" />
    </link>
    <joint name="joint_left_mid_wheel" type="continuous">
        <origin xyz="0.163928 0.0305 -0.1280289" rpy="0.0 0.0 0.0"/>
        <parent link="left_bogie_link"/>
        <child link="left_mid_wheel_link"/>
        <axis xyz="0 1 0"/>
    </joint>

</robot>